EESchema Schematic File Version 4
LIBS:swiatelka-cache
EELAYER 30 0
EELAYER END
$Descr A4 11693 8268
encoding utf-8
Sheet 1 1
Title "Oświetlenie ROV"
Date "2021-08-23"
Rev "1.0"
Comp "KN Robocik"
Comment1 ""
Comment2 ""
Comment3 ""
Comment4 ""
$EndDescr
Wire Wire Line
	5200 4650 5350 4650
Text GLabel 5200 4650 0    50   Input ~ 0
LED_OUT
Wire Wire Line
	5700 4850 5800 4850
Connection ~ 5700 4850
Wire Wire Line
	5700 4650 5700 4850
Wire Wire Line
	5550 4650 5700 4650
$Comp
L Device:L_Small L1
U 1 1 613027CF
P 5450 4650
F 0 "L1" V 5635 4650 50  0001 C CNN
F 1 "L" V 5543 4650 50  0000 C CNN
F 2 "" H 5450 4650 50  0001 C CNN
F 3 "~" H 5450 4650 50  0001 C CNN
	1    5450 4650
	0    -1   -1   0   
$EndComp
Wire Wire Line
	6250 6150 6250 6000
$Comp
L power:GND #PWR0103
U 1 1 612F7307
P 6250 6150
F 0 "#PWR0103" H 6250 5900 50  0001 C CNN
F 1 "GND" H 6255 5977 50  0000 C CNN
F 2 "" H 6250 6150 50  0001 C CNN
F 3 "" H 6250 6150 50  0001 C CNN
	1    6250 6150
	1    0    0    -1  
$EndComp
Wire Wire Line
	5200 4950 5200 4850
$Comp
L power:GND #PWR0104
U 1 1 612F2E21
P 5200 4950
F 0 "#PWR0104" H 5200 4700 50  0001 C CNN
F 1 "GND" H 5205 4777 50  0000 C CNN
F 2 "" H 5200 4950 50  0001 C CNN
F 3 "" H 5200 4950 50  0001 C CNN
	1    5200 4950
	1    0    0    -1  
$EndComp
Connection ~ 5500 4850
Wire Wire Line
	5400 4850 5500 4850
$Comp
L Device:D_Schottky_Small D1
U 1 1 612EE09A
P 5300 4850
F 0 "D1" H 5300 4645 50  0001 C CNN
F 1 "D_Schottky" H 5350 4750 50  0000 C CNN
F 2 "" V 5300 4850 50  0001 C CNN
F 3 "~" V 5300 4850 50  0001 C CNN
	1    5300 4850
	-1   0    0    1   
$EndComp
Wire Wire Line
	5500 4850 5700 4850
Wire Wire Line
	5500 5200 5500 4850
Wire Wire Line
	5600 5200 5500 5200
Wire Wire Line
	6250 5200 6200 5200
Wire Wire Line
	6250 4850 6250 5200
Wire Wire Line
	6000 4850 6250 4850
$Comp
L Device:C_Small C1
U 1 1 612E8F16
P 5900 4850
F 0 "C1" H 5992 4896 50  0000 L CNN
F 1 "C_Small" H 5992 4805 50  0000 L CNN
F 2 "" H 5900 4850 50  0001 C CNN
F 3 "~" H 5900 4850 50  0001 C CNN
	1    5900 4850
	0    -1   -1   0   
$EndComp
Wire Wire Line
	6250 5500 6200 5500
Wire Wire Line
	6250 5800 6250 5700
$Comp
L Device:R_Small R1
U 1 1 612E3E28
P 6250 5900
F 0 "R1" H 6309 5946 50  0001 L CNN
F 1 "0.134" H 6309 5900 50  0000 L CNN
F 2 "" H 6250 5900 50  0001 C CNN
F 3 "~" H 6250 5900 50  0001 C CNN
	1    6250 5900
	1    0    0    -1  
$EndComp
Wire Wire Line
	5550 5500 5600 5500
Wire Wire Line
	5550 5600 5550 5500
$Comp
L power:GND #PWR0105
U 1 1 612DF205
P 5550 5600
F 0 "#PWR0105" H 5550 5350 50  0001 C CNN
F 1 "GND" H 5555 5427 50  0000 C CNN
F 2 "" H 5550 5600 50  0001 C CNN
F 3 "" H 5550 5600 50  0001 C CNN
	1    5550 5600
	1    0    0    -1  
$EndComp
Wire Wire Line
	6650 5400 6650 5300
$Comp
L power:GND #PWR0106
U 1 1 612DB86D
P 6650 5400
F 0 "#PWR0106" H 6650 5150 50  0001 C CNN
F 1 "GND" H 6655 5227 50  0000 C CNN
F 2 "" H 6650 5400 50  0001 C CNN
F 3 "" H 6650 5400 50  0001 C CNN
	1    6650 5400
	1    0    0    -1  
$EndComp
Connection ~ 6650 5000
Wire Wire Line
	6650 5100 6650 5000
$Comp
L Device:C_Small C2
U 1 1 612D50A3
P 6650 5200
F 0 "C2" H 6742 5246 50  0001 L CNN
F 1 "C_IN" H 6742 5200 50  0000 L CNN
F 2 "" H 6650 5200 50  0001 C CNN
F 3 "~" H 6650 5200 50  0001 C CNN
	1    6650 5200
	1    0    0    -1  
$EndComp
Wire Wire Line
	6450 5000 6650 5000
Wire Wire Line
	6450 5300 6450 5000
Wire Wire Line
	6200 5300 6450 5300
Wire Wire Line
	5450 5400 5600 5400
Text GLabel 5450 5400 0    50   Input ~ 0
EN
Wire Wire Line
	5450 5300 5600 5300
Text GLabel 5450 5300 0    50   Input ~ 0
PWM
$Comp
L driver:MP2480 U1
U 1 1 60ACE12A
P 5900 5450
F 0 "U1" H 5900 5925 50  0000 C CNN
F 1 "MP2480" H 5900 5834 50  0000 C CNN
F 2 "Package_SO:SOIC-8-1EP_3.9x4.9mm_P1.27mm_EP2.29x3mm_ThermalVias" H 5900 5800 50  0001 C CNN
F 3 "" H 5900 5800 50  0001 C CNN
	1    5900 5450
	1    0    0    -1  
$EndComp
Wire Wire Line
	9500 1900 9400 1900
Wire Wire Line
	9400 1800 9500 1800
Text GLabel 9400 1800 0    50   Input ~ 0
CAN_H
Text GLabel 9400 1900 0    50   Input ~ 0
CAN_L
Wire Wire Line
	6950 2350 6800 2350
Text GLabel 6950 2350 2    50   Input ~ 0
EN
Wire Wire Line
	9300 2000 9500 2000
Wire Wire Line
	9300 2050 9300 2000
$Comp
L power:GND #PWR0107
U 1 1 612B0C87
P 9300 2050
F 0 "#PWR0107" H 9300 1800 50  0001 C CNN
F 1 "GND" H 9305 1877 50  0000 C CNN
F 2 "" H 9300 2050 50  0001 C CNN
F 3 "" H 9300 2050 50  0001 C CNN
	1    9300 2050
	1    0    0    -1  
$EndComp
Wire Wire Line
	9500 1700 9300 1700
$Comp
L power:VCC #PWR0108
U 1 1 612AD967
P 9300 1700
F 0 "#PWR0108" H 9300 1550 50  0001 C CNN
F 1 "VCC" H 9317 1873 50  0000 C CNN
F 2 "" H 9300 1700 50  0001 C CNN
F 3 "" H 9300 1700 50  0001 C CNN
	1    9300 1700
	1    0    0    -1  
$EndComp
$Comp
L Connector:Conn_01x04_Female J3
U 1 1 612ACDE4
P 9700 1800
F 0 "J3" H 9728 1776 50  0000 L CNN
F 1 "Wtyk" H 9728 1685 50  0000 L CNN
F 2 "" H 9700 1800 50  0001 C CNN
F 3 "~" H 9700 1800 50  0001 C CNN
	1    9700 1800
	1    0    0    -1  
$EndComp
Connection ~ 6350 1600
Wire Wire Line
	6450 1600 6450 1550
Wire Wire Line
	6350 1600 6450 1600
Wire Wire Line
	6250 1600 6250 1550
Wire Wire Line
	6350 1600 6250 1600
$Comp
L power:GND #PWR0109
U 1 1 6129D9F7
P 6350 1600
F 0 "#PWR0109" H 6350 1350 50  0001 C CNN
F 1 "GND" H 6355 1427 50  0000 C CNN
F 2 "" H 6350 1600 50  0001 C CNN
F 3 "" H 6350 1600 50  0001 C CNN
	1    6350 1600
	1    0    0    -1  
$EndComp
$Comp
L Device:CP_Small C4
U 1 1 612934FA
P 6450 1450
F 0 "C4" H 6538 1496 50  0001 L CNN
F 1 "10u" H 6538 1450 50  0000 L CNN
F 2 "" H 6450 1450 50  0001 C CNN
F 3 "~" H 6450 1450 50  0001 C CNN
	1    6450 1450
	1    0    0    -1  
$EndComp
$Comp
L Device:C_Small C3
U 1 1 61291347
P 6250 1450
F 0 "C3" H 6342 1496 50  0001 L CNN
F 1 "100n" H 6000 1450 50  0000 L CNN
F 2 "" H 6250 1450 50  0001 C CNN
F 3 "~" H 6250 1450 50  0001 C CNN
	1    6250 1450
	1    0    0    -1  
$EndComp
$Comp
L power:GND #PWR0112
U 1 1 6124BCF1
P 4700 3000
F 0 "#PWR0112" H 4700 2750 50  0001 C CNN
F 1 "GND" H 4705 2827 50  0000 C CNN
F 2 "" H 4700 3000 50  0001 C CNN
F 3 "" H 4700 3000 50  0001 C CNN
	1    4700 3000
	-1   0    0    -1  
$EndComp
$Comp
L Device:C_Small C6
U 1 1 61243310
P 5250 2950
F 0 "C6" H 5342 2996 50  0001 L CNN
F 1 "22p" V 5150 2950 50  0000 C CNN
F 2 "" H 5250 2950 50  0001 C CNN
F 3 "~" H 5250 2950 50  0001 C CNN
	1    5250 2950
	0    1    -1   0   
$EndComp
$Comp
L Device:C_Small C5
U 1 1 61242F5C
P 5250 2650
F 0 "C5" H 5342 2696 50  0001 L CNN
F 1 "22p" V 5350 2650 50  0000 C CNN
F 2 "" H 5250 2650 50  0001 C CNN
F 3 "~" H 5250 2650 50  0001 C CNN
	1    5250 2650
	0    1    -1   0   
$EndComp
$Comp
L Device:Crystal_Small Y1
U 1 1 61242385
P 5450 2800
F 0 "Y1" H 5450 3025 50  0001 C CNN
F 1 "32MHz" V 5450 2850 50  0000 L CNN
F 2 "" H 5450 2800 50  0001 C CNN
F 3 "~" H 5450 2800 50  0001 C CNN
	1    5450 2800
	0    -1   -1   0   
$EndComp
$Comp
L MCU_ST_STM32F0:STM32F042F4Px U2
U 1 1 612D673F
P 6200 2550
F 0 "U2" H 6200 2550 50  0000 C CNN
F 1 "STM32F042F4Px" H 6200 2450 50  0000 C CNN
F 2 "Package_SO:TSSOP-20_4.4x6.5mm_P0.65mm" H 5700 1850 50  0001 R CNN
F 3 "http://www.st.com/st-web-ui/static/active/en/resource/technical/document/datasheet/DM00105814.pdf" H 6200 2550 50  0001 C CNN
	1    6200 2550
	1    0    0    -1  
$EndComp
Text GLabel 6950 2450 2    50   Input ~ 0
PWM
Text GLabel 6950 2850 2    50   Input ~ 0
RXCAN
Text GLabel 6950 2950 2    50   Input ~ 0
TXCAN
Wire Wire Line
	6950 2450 6800 2450
Wire Wire Line
	6950 2850 6800 2850
Wire Wire Line
	6950 2950 6800 2950
$Comp
L Interface_CAN_LIN:SN65HVD230 U4
U 1 1 612F6477
P 9300 4850
F 0 "U4" H 9300 4800 50  0000 C CNN
F 1 "SN65HVD230" H 9600 5100 50  0000 C CNN
F 2 "Package_SO:SOIC-8_3.9x4.9mm_P1.27mm" H 9300 4350 50  0001 C CNN
F 3 "http://www.ti.com/lit/ds/symlink/sn65hvd230.pdf" H 9200 5250 50  0001 C CNN
	1    9300 4850
	1    0    0    -1  
$EndComp
Text GLabel 8800 4850 0    50   Input ~ 0
RXCAN
Text GLabel 8800 4750 0    50   Input ~ 0
TXCAN
Wire Wire Line
	8800 4750 8900 4750
Wire Wire Line
	8900 4850 8800 4850
$Comp
L power:+3.3V #PWR0101
U 1 1 6130DAD9
P 6350 1300
F 0 "#PWR0101" H 6350 1150 50  0001 C CNN
F 1 "+3.3V" H 6365 1473 50  0000 C CNN
F 2 "" H 6350 1300 50  0001 C CNN
F 3 "" H 6350 1300 50  0001 C CNN
	1    6350 1300
	1    0    0    -1  
$EndComp
$Comp
L power:GND #PWR0102
U 1 1 6131258C
P 6000 3400
F 0 "#PWR0102" H 6000 3150 50  0001 C CNN
F 1 "GND" H 6005 3227 50  0000 C CNN
F 2 "" H 6000 3400 50  0001 C CNN
F 3 "" H 6000 3400 50  0001 C CNN
	1    6000 3400
	1    0    0    -1  
$EndComp
Wire Wire Line
	6000 3400 6000 3350
Text GLabel 6950 2250 2    50   Input ~ 0
LED_ORING
Wire Wire Line
	6950 2250 6800 2250
Wire Wire Line
	6350 1300 6450 1300
Wire Wire Line
	6450 1300 6450 1350
Wire Wire Line
	6350 1300 6250 1300
Wire Wire Line
	6250 1300 6250 1350
Connection ~ 6350 1300
Wire Wire Line
	6250 1300 6000 1300
Wire Wire Line
	6000 1300 6000 1700
Connection ~ 6250 1300
Wire Wire Line
	6100 1850 6100 1700
Wire Wire Line
	6100 1700 6000 1700
Connection ~ 6000 1700
Wire Wire Line
	6000 1700 6000 1850
Text GLabel 6350 5700 2    50   Input ~ 0
LED_IN
Wire Wire Line
	6350 5700 6250 5700
Connection ~ 6250 5700
Wire Wire Line
	6250 5700 6250 5500
Wire Wire Line
	6650 5000 6900 5000
Wire Wire Line
	5600 2050 5600 1700
$Comp
L Device:R_Small R2
U 1 1 6137A5E8
P 5600 1600
F 0 "R2" V 5796 1600 50  0001 C CNN
F 1 "10k" H 5700 1600 50  0000 C CNN
F 2 "" H 5600 1600 50  0001 C CNN
F 3 "~" H 5600 1600 50  0001 C CNN
	1    5600 1600
	1    0    0    -1  
$EndComp
Wire Wire Line
	5600 1500 5600 1300
Wire Wire Line
	5600 1300 6000 1300
Connection ~ 6000 1300
Wire Wire Line
	5450 2700 5450 2650
Wire Wire Line
	5450 2650 5600 2650
Wire Wire Line
	5600 2650 5600 2750
Wire Wire Line
	5600 2850 5600 2950
Wire Wire Line
	5600 2950 5450 2950
Wire Wire Line
	5450 2950 5450 2900
Wire Wire Line
	5350 2950 5450 2950
Connection ~ 5450 2950
Wire Wire Line
	5350 2650 5450 2650
Connection ~ 5450 2650
Wire Wire Line
	5150 2650 5000 2650
Text GLabel 10250 4850 2    50   Input ~ 0
CAN_H
Text GLabel 10250 4950 2    50   Input ~ 0
CAN_L
$Comp
L power:GND #PWR0111
U 1 1 613DF844
P 9300 5450
F 0 "#PWR0111" H 9300 5200 50  0001 C CNN
F 1 "GND" H 9305 5277 50  0000 C CNN
F 2 "" H 9300 5450 50  0001 C CNN
F 3 "" H 9300 5450 50  0001 C CNN
	1    9300 5450
	1    0    0    -1  
$EndComp
Wire Wire Line
	9300 5450 9300 5400
$Comp
L power:+3.3V #PWR0113
U 1 1 613EBF03
P 9300 4400
F 0 "#PWR0113" H 9300 4250 50  0001 C CNN
F 1 "+3.3V" H 9315 4573 50  0000 C CNN
F 2 "" H 9300 4400 50  0001 C CNN
F 3 "" H 9300 4400 50  0001 C CNN
	1    9300 4400
	1    0    0    -1  
$EndComp
Wire Wire Line
	9300 4400 9300 4550
$Comp
L Device:R_Small R3
U 1 1 613F2CC7
P 8900 5250
F 0 "R3" V 9096 5250 50  0001 C CNN
F 1 "10k" H 9000 5250 50  0000 C CNN
F 2 "" H 8900 5250 50  0001 C CNN
F 3 "~" H 8900 5250 50  0001 C CNN
	1    8900 5250
	1    0    0    -1  
$EndComp
Wire Wire Line
	8900 5150 8900 5050
Wire Wire Line
	8900 5350 8900 5400
Wire Wire Line
	8900 5400 9300 5400
Connection ~ 9300 5400
Wire Wire Line
	9300 5400 9300 5250
$Comp
L Device:R_Small R4
U 1 1 6140DFE8
P 9950 4900
F 0 "R4" V 10146 4900 50  0001 C CNN
F 1 "120" H 10050 4900 50  0000 C CNN
F 2 "" H 9950 4900 50  0001 C CNN
F 3 "~" H 9950 4900 50  0001 C CNN
	1    9950 4900
	1    0    0    -1  
$EndComp
Wire Wire Line
	9700 4850 9800 4850
Wire Wire Line
	9800 4850 9800 4750
Wire Wire Line
	9800 4750 9950 4750
Wire Wire Line
	10100 4750 10100 4850
Wire Wire Line
	10100 4850 10250 4850
Wire Wire Line
	9700 4950 9800 4950
Wire Wire Line
	9800 4950 9800 5050
Wire Wire Line
	9800 5050 9950 5050
Wire Wire Line
	10100 5050 10100 4950
Wire Wire Line
	10100 4950 10250 4950
Wire Wire Line
	9950 5000 9950 5050
Connection ~ 9950 5050
Wire Wire Line
	9950 5050 10100 5050
Wire Wire Line
	9950 4800 9950 4750
Connection ~ 9950 4750
Wire Wire Line
	9950 4750 10100 4750
Wire Wire Line
	5150 2950 5000 2950
Wire Wire Line
	5000 2950 5000 2800
Wire Wire Line
	5000 2800 4700 2800
Wire Wire Line
	4700 2800 4700 3000
Connection ~ 5000 2800
Wire Wire Line
	5000 2800 5000 2650
NoConn ~ 8900 4950
$Comp
L Connector:Conn_01x03_Male J1
U 1 1 6146790B
P 9600 2800
F 0 "J1" H 9572 2732 50  0000 R CNN
F 1 "SK6812" H 9572 2823 50  0000 R CNN
F 2 "" H 9600 2800 50  0001 C CNN
F 3 "~" H 9600 2800 50  0001 C CNN
	1    9600 2800
	-1   0    0    1   
$EndComp
Text GLabel 9300 2800 0    50   Input ~ 0
PWM
Wire Wire Line
	9300 2800 9400 2800
$Comp
L power:GND #PWR0114
U 1 1 61472231
P 9300 2950
F 0 "#PWR0114" H 9300 2700 50  0001 C CNN
F 1 "GND" H 9305 2777 50  0000 C CNN
F 2 "" H 9300 2950 50  0001 C CNN
F 3 "" H 9300 2950 50  0001 C CNN
	1    9300 2950
	1    0    0    -1  
$EndComp
Wire Wire Line
	9300 2950 9300 2900
Wire Wire Line
	9300 2900 9400 2900
$Comp
L power:+5V #PWR0115
U 1 1 61476731
P 9300 2600
F 0 "#PWR0115" H 9300 2450 50  0001 C CNN
F 1 "+5V" H 9315 2773 50  0000 C CNN
F 2 "" H 9300 2600 50  0001 C CNN
F 3 "" H 9300 2600 50  0001 C CNN
	1    9300 2600
	1    0    0    -1  
$EndComp
Wire Wire Line
	9300 2600 9300 2700
Wire Wire Line
	9300 2700 9400 2700
$Comp
L Regulator_Switching:LM2596S-12 U3
U 1 1 6147B557
P 2150 1800
F 0 "U3" H 2150 2167 50  0000 C CNN
F 1 "LM2596S-12" H 2150 2076 50  0000 C CNN
F 2 "Package_TO_SOT_SMD:TO-263-5_TabPin3" H 2200 1550 50  0001 L CIN
F 3 "http://www.ti.com/lit/ds/symlink/lm2596.pdf" H 2150 1800 50  0001 C CNN
	1    2150 1800
	1    0    0    -1  
$EndComp
$Comp
L power:GND #PWR?
U 1 1 61480984
P 2150 2200
F 0 "#PWR?" H 2150 1950 50  0001 C CNN
F 1 "GND" H 2155 2027 50  0000 C CNN
F 2 "" H 2150 2200 50  0001 C CNN
F 3 "" H 2150 2200 50  0001 C CNN
	1    2150 2200
	1    0    0    -1  
$EndComp
Wire Wire Line
	2150 2200 2150 2100
$Comp
L Device:CP_Small C?
U 1 1 6148D5E6
P 1300 1900
F 0 "C?" H 1388 1946 50  0001 L CNN
F 1 "680u" H 1388 1900 50  0000 L CNN
F 2 "" H 1300 1900 50  0001 C CNN
F 3 "~" H 1300 1900 50  0001 C CNN
	1    1300 1900
	1    0    0    -1  
$EndComp
$Comp
L power:GND #PWR?
U 1 1 61496317
P 1650 2200
F 0 "#PWR?" H 1650 1950 50  0001 C CNN
F 1 "GND" H 1655 2027 50  0000 C CNN
F 2 "" H 1650 2200 50  0001 C CNN
F 3 "" H 1650 2200 50  0001 C CNN
	1    1650 2200
	1    0    0    -1  
$EndComp
Wire Wire Line
	1650 2200 1650 1900
Wire Wire Line
	1300 1800 1300 1700
Wire Wire Line
	1300 1700 1650 1700
$Comp
L power:GND #PWR?
U 1 1 614A2892
P 1300 2200
F 0 "#PWR?" H 1300 1950 50  0001 C CNN
F 1 "GND" H 1305 2027 50  0000 C CNN
F 2 "" H 1300 2200 50  0001 C CNN
F 3 "" H 1300 2200 50  0001 C CNN
	1    1300 2200
	1    0    0    -1  
$EndComp
Wire Wire Line
	1300 2200 1300 2000
Wire Wire Line
	2650 1900 2700 1900
$Comp
L Device:L_Small L?
U 1 1 614AE4F3
P 2900 1900
F 0 "L?" V 3085 1900 50  0001 C CNN
F 1 "L" V 2993 1900 50  0000 C CNN
F 2 "" H 2900 1900 50  0001 C CNN
F 3 "~" H 2900 1900 50  0001 C CNN
	1    2900 1900
	0    -1   -1   0   
$EndComp
$Comp
L Device:D_Schottky_Small D?
U 1 1 614AE4FB
P 2700 2050
F 0 "D?" H 2700 1845 50  0001 C CNN
F 1 "D_Schottky" V 2800 2250 50  0000 C CNN
F 2 "" V 2700 2050 50  0001 C CNN
F 3 "~" V 2700 2050 50  0001 C CNN
	1    2700 2050
	0    1    1    0   
$EndComp
$Comp
L Device:C_Small C?
U 1 1 614AE504
P 3200 2050
F 0 "C?" H 3292 2096 50  0001 L CNN
F 1 "C_out" H 3292 2005 50  0000 L CNN
F 2 "" H 3200 2050 50  0001 C CNN
F 3 "~" H 3200 2050 50  0001 C CNN
	1    3200 2050
	1    0    0    -1  
$EndComp
Wire Wire Line
	2700 1950 2700 1900
Connection ~ 2700 1900
Wire Wire Line
	2700 1900 2800 1900
$Comp
L power:GND #PWR?
U 1 1 614C6CD4
P 2700 2200
F 0 "#PWR?" H 2700 1950 50  0001 C CNN
F 1 "GND" H 2705 2027 50  0000 C CNN
F 2 "" H 2700 2200 50  0001 C CNN
F 3 "" H 2700 2200 50  0001 C CNN
	1    2700 2200
	1    0    0    -1  
$EndComp
Wire Wire Line
	2700 2200 2700 2150
Wire Wire Line
	3200 1950 3200 1900
Wire Wire Line
	3200 1900 3000 1900
$Comp
L power:GND #PWR?
U 1 1 614E8B85
P 3200 2200
F 0 "#PWR?" H 3200 1950 50  0001 C CNN
F 1 "GND" H 3205 2027 50  0000 C CNN
F 2 "" H 3200 2200 50  0001 C CNN
F 3 "" H 3200 2200 50  0001 C CNN
	1    3200 2200
	1    0    0    -1  
$EndComp
Wire Wire Line
	3200 2200 3200 2150
Wire Wire Line
	2650 1700 3200 1700
Wire Wire Line
	3200 1700 3200 1900
Connection ~ 3200 1900
$Comp
L power:VCC #PWR?
U 1 1 615050C7
P 1150 1650
F 0 "#PWR?" H 1150 1500 50  0001 C CNN
F 1 "VCC" H 1167 1823 50  0000 C CNN
F 2 "" H 1150 1650 50  0001 C CNN
F 3 "" H 1150 1650 50  0001 C CNN
	1    1150 1650
	1    0    0    -1  
$EndComp
Wire Wire Line
	1150 1650 1150 1700
Wire Wire Line
	1150 1700 1300 1700
Connection ~ 1300 1700
$Comp
L power:+12V #PWR?
U 1 1 6150C42F
P 3300 1650
F 0 "#PWR?" H 3300 1500 50  0001 C CNN
F 1 "+12V" H 3315 1823 50  0000 C CNN
F 2 "" H 3300 1650 50  0001 C CNN
F 3 "" H 3300 1650 50  0001 C CNN
	1    3300 1650
	1    0    0    -1  
$EndComp
Wire Wire Line
	3300 1650 3300 1700
Wire Wire Line
	3300 1700 3200 1700
Connection ~ 3200 1700
$Comp
L Regulator_Linear:AMS1117-3.3 U?
U 1 1 615248CE
P 2200 3450
F 0 "U?" H 2200 3692 50  0000 C CNN
F 1 "AMS1117-3.3" H 2200 3601 50  0000 C CNN
F 2 "Package_TO_SOT_SMD:SOT-223-3_TabPin2" H 2200 3650 50  0001 C CNN
F 3 "http://www.advanced-monolithic.com/pdf/ds1117.pdf" H 2300 3200 50  0001 C CNN
	1    2200 3450
	1    0    0    -1  
$EndComp
$Comp
L Regulator_Linear:AMS1117-5.0 U?
U 1 1 61525256
P 2200 4950
F 0 "U?" H 2200 5192 50  0000 C CNN
F 1 "AMS1117-5.0" H 2200 5101 50  0000 C CNN
F 2 "Package_TO_SOT_SMD:SOT-223-3_TabPin2" H 2200 5150 50  0001 C CNN
F 3 "http://www.advanced-monolithic.com/pdf/ds1117.pdf" H 2300 4700 50  0001 C CNN
	1    2200 4950
	1    0    0    -1  
$EndComp
$Comp
L power:+12V #PWR?
U 1 1 6152732D
P 1600 3400
F 0 "#PWR?" H 1600 3250 50  0001 C CNN
F 1 "+12V" H 1615 3573 50  0000 C CNN
F 2 "" H 1600 3400 50  0001 C CNN
F 3 "" H 1600 3400 50  0001 C CNN
	1    1600 3400
	1    0    0    -1  
$EndComp
$Comp
L power:+12V #PWR?
U 1 1 61531DE8
P 1650 4850
F 0 "#PWR?" H 1650 4700 50  0001 C CNN
F 1 "+12V" H 1665 5023 50  0000 C CNN
F 2 "" H 1650 4850 50  0001 C CNN
F 3 "" H 1650 4850 50  0001 C CNN
	1    1650 4850
	1    0    0    -1  
$EndComp
$Comp
L Device:C_Small C?
U 1 1 61536FE2
P 1700 3600
F 0 "C?" H 1792 3646 50  0001 L CNN
F 1 "100n" H 1792 3555 50  0000 L CNN
F 2 "" H 1700 3600 50  0001 C CNN
F 3 "~" H 1700 3600 50  0001 C CNN
	1    1700 3600
	1    0    0    -1  
$EndComp
$Comp
L Device:C_Small C?
U 1 1 6153B86D
P 2700 3600
F 0 "C?" H 2792 3646 50  0001 L CNN
F 1 "22u" H 2792 3555 50  0000 L CNN
F 2 "" H 2700 3600 50  0001 C CNN
F 3 "~" H 2700 3600 50  0001 C CNN
	1    2700 3600
	1    0    0    -1  
$EndComp
Wire Wire Line
	1600 3450 1600 3400
Wire Wire Line
	1700 3800 2200 3800
Wire Wire Line
	2200 3800 2200 3750
Wire Wire Line
	2200 3800 2700 3800
Connection ~ 2200 3800
$Comp
L Device:C_Small C?
U 1 1 61554017
P 1750 5100
F 0 "C?" H 1842 5146 50  0001 L CNN
F 1 "100n" H 1800 5050 50  0000 L CNN
F 2 "" H 1750 5100 50  0001 C CNN
F 3 "~" H 1750 5100 50  0001 C CNN
	1    1750 5100
	1    0    0    -1  
$EndComp
Wire Wire Line
	1650 4950 1650 4850
$Comp
L Device:C_Small C?
U 1 1 61561BBE
P 2700 5100
F 0 "C?" H 2792 5146 50  0001 L CNN
F 1 "22u" H 2792 5055 50  0000 L CNN
F 2 "" H 2700 5100 50  0001 C CNN
F 3 "~" H 2700 5100 50  0001 C CNN
	1    2700 5100
	1    0    0    -1  
$EndComp
Wire Wire Line
	2700 4950 2500 4950
Wire Wire Line
	2700 5300 2200 5300
Wire Wire Line
	2200 5250 2200 5300
Connection ~ 2200 5300
Wire Wire Line
	2200 5300 1750 5300
$Comp
L power:+12V #PWR?
U 1 1 61578F63
P 6900 5000
F 0 "#PWR?" H 6900 4850 50  0001 C CNN
F 1 "+12V" H 6915 5173 50  0000 C CNN
F 2 "" H 6900 5000 50  0001 C CNN
F 3 "" H 6900 5000 50  0001 C CNN
	1    6900 5000
	1    0    0    -1  
$EndComp
$Comp
L power:+5V #PWR?
U 1 1 61591E88
P 2800 4900
F 0 "#PWR?" H 2800 4750 50  0001 C CNN
F 1 "+5V" H 2815 5073 50  0000 C CNN
F 2 "" H 2800 4900 50  0001 C CNN
F 3 "" H 2800 4900 50  0001 C CNN
	1    2800 4900
	1    0    0    -1  
$EndComp
Wire Wire Line
	2800 4900 2800 4950
Wire Wire Line
	2500 3450 2700 3450
Wire Wire Line
	2700 3500 2700 3450
Wire Wire Line
	2700 4950 2800 4950
Wire Wire Line
	2700 3700 2700 3800
Wire Wire Line
	1600 3450 1700 3450
Wire Wire Line
	1700 3500 1700 3450
Connection ~ 1700 3450
Wire Wire Line
	1700 3450 1900 3450
Wire Wire Line
	1700 3700 1700 3800
Wire Wire Line
	2700 5000 2700 4950
Wire Wire Line
	2700 5200 2700 5300
Wire Wire Line
	1650 4950 1750 4950
Wire Wire Line
	1750 5000 1750 4950
Connection ~ 1750 4950
Wire Wire Line
	1750 4950 1900 4950
Wire Wire Line
	1750 5200 1750 5300
Connection ~ 2700 4950
$Comp
L power:+3.3V #PWR?
U 1 1 61611C29
P 2800 3400
F 0 "#PWR?" H 2800 3250 50  0001 C CNN
F 1 "+3.3V" H 2815 3573 50  0000 C CNN
F 2 "" H 2800 3400 50  0001 C CNN
F 3 "" H 2800 3400 50  0001 C CNN
	1    2800 3400
	1    0    0    -1  
$EndComp
Wire Wire Line
	2800 3400 2800 3450
Wire Wire Line
	2800 3450 2700 3450
Connection ~ 2700 3450
$Comp
L power:GND #PWR?
U 1 1 6162A779
P 2200 3850
F 0 "#PWR?" H 2200 3600 50  0001 C CNN
F 1 "GND" H 2205 3677 50  0000 C CNN
F 2 "" H 2200 3850 50  0001 C CNN
F 3 "" H 2200 3850 50  0001 C CNN
	1    2200 3850
	1    0    0    -1  
$EndComp
Wire Wire Line
	2200 3850 2200 3800
$Comp
L power:GND #PWR?
U 1 1 61644423
P 2200 5350
F 0 "#PWR?" H 2200 5100 50  0001 C CNN
F 1 "GND" H 2205 5177 50  0000 C CNN
F 2 "" H 2200 5350 50  0001 C CNN
F 3 "" H 2200 5350 50  0001 C CNN
	1    2200 5350
	1    0    0    -1  
$EndComp
Wire Wire Line
	2200 5350 2200 5300
$EndSCHEMATC
